acciddasuite • acciddasuite
…
fcast$hubcast
#> $model_out_tbl
#> # A tibble: 200 × 9
#>    model_id reference_date target   horizon location target_end_date output_type
#>    <chr>    <date>         <chr>      <int> <chr>    <date>          <chr>      
#>  1 ARIMA    2025-12-20     wk inc …       1 NY       2025-12-27      quantile   
#>  2 ARIMA    2025-12-20     wk inc …       1 NY       2025-12-27      quantile   
#>  3 ARIMA    2025-12-20     wk inc …       1 NY       2025-12-27      quantile   
#>  4 ARIMA    2025-12-20     wk inc …       1 NY       2025-12-27      quantile   
#>  5 ARIMA    2025-12-20     wk inc …       1 NY       2025-12-27      quantile   
#>  6 ARIMA    2025-12-20     wk inc …       2 NY       2026-01-03      quantile   
#>  7 ARIMA    2025-12-20     wk inc …       2 NY       2026-01-03      quantile   
#>  8 ARIMA    2025-12-20     wk inc …       2 NY       2026-01-03      quantile   
#>  9 ARIMA    2025-12-20     wk inc …       2 NY       2026-01-03      quantile   
#> 10 ARIMA    2025-12-20     wk inc …       2 NY       2026-01-03      quantile   
#> # ℹ 190 more rows
#> # ℹ 2 more variables: output_type_id <chr>, value <dbl>
#> 
#> $oracle_output
#> # A tibble: 286 × 6
#>    location target_end_date target       output_type output_type_id oracle_value
#>    <chr>    <date>          <chr>        <chr>       <lgl>                 <dbl>
#>  1 NY       2020-08-08      wk inc covi… quantile    NA                      517
#>  2 NY       2020-08-15      wk inc covi… quantile    NA                      490
#>  3 NY       2020-08-22      wk inc covi… quantile    NA                      844
#>  4 NY       2020-08-29      wk inc covi… quantile    NA                      483
#>  5 NY       2020-09-05      wk inc covi… quantile    NA                      479
#>  6 NY       2020-09-12      wk inc covi… quantile    NA                      573
#>  7 NY       2020-09-19      wk inc covi… quantile    NA                      578
#>  8 NY       2020-09-26      wk inc covi… quantile    NA                      656
#>  9 NY       2020-10-03      wk inc covi… quantile    NA                      851
#> 10 NY       2020-10-10      wk inc covi… quantile    NA                      840
#> # ℹ 276 more rows
…
