…
- `target_end_date`: End date of the target week

- `observation`: Observed hospital admissions

## See also

[pub_covidcast](https://cmu-delphi.github.io/epidatr/reference/pub_covidcast.html)

https://docs.hubverse.io/en/stable/user-guide/target-data.html

## Examples

``` r
get_data(pathogen = "covid", geo_values = c("ca", "ny"))
#> # A tibble: 572 × 5
#>    as_of      location target            target_end_date observation
#>    <date>     <chr>    <chr>             <date>                <dbl>
#>  1 2026-01-25 CA       wk inc covid hosp 2020-08-08             4836
#>  2 2026-01-25 NY       wk inc covid hosp 2020-08-08              517
#>  3 2026-01-25 CA       wk inc covid hosp 2020-08-15             4273
#>  4 2026-01-25 NY       wk inc covid hosp 2020-08-15              490
#>  5 2026-01-25 CA       wk inc covid hosp 2020-08-22             3498
#>  6 2026-01-25 NY       wk inc covid hosp 2020-08-22              844
#>  7 2026-01-25 CA       wk inc covid hosp 2020-08-29             3100
#>  8 2026-01-25 NY       wk inc covid hosp 2020-08-29              483
#>  9 2026-01-25 CA       wk inc covid hosp 2020-09-05             2888
#> 10 2026-01-25 NY       wk inc covid hosp 2020-09-05              479
#> # ℹ 562 more rows
```
